<?xml version="1.0" encoding="UTF-8"?>
<svg xmlns="http://www.w3.org/2000/svg" xmlns:xlink="http://www.w3.org/1999/xlink" width="1080" height="1080" viewBox="0 0 1080 1080">
<defs>
<clipPath id="clip-0">
<path clip-rule="nonzero" d="M 0 0 L 55 0 L 55 109 L 0 109 Z M 0 0 "/>
</clipPath>
<clipPath id="clip-1">
<rect x="0" y="0" width="55" height="109"/>
</clipPath>
<g id="source-149" clip-path="url(#clip-1)">
<g clip-path="url(#clip-0)">
<path fill-rule="nonzero" fill="rgb(100%, 100%, 100%)" fill-opacity="1" d="M 0.0742188 108.074219 L 54.222656 108.074219 L 54.222656 -0.0742188 L 0.0742188 -0.0742188 Z M 0.0742188 108.074219 "/>
</g>
<path fill="none" stroke-width="0.15" stroke-linecap="butt" stroke-linejoin="miter" stroke="rgb(0%, 0%, 0%)" stroke-opacity="1" stroke-miterlimit="10" d="M -0.00078125 -35.999219 L -0.00078125 36.000781 " transform="matrix(1, 0, 0, -1, 27.075, 54.075)"/>
<path fill-rule="nonzero" fill="rgb(100%, 100%, 100%)" fill-opacity="1" stroke-width="0.15" stroke-linecap="butt" stroke-linejoin="miter" stroke="rgb(0%, 0%, 0%)" stroke-opacity="1" stroke-miterlimit="10" d="M 2.401563 0.00078125 C 2.401563 3.2 -2.399219 3.2 -2.399219 0.00078125 C -2.399219 -3.198437 2.401563 -3.198437 2.401563 0.00078125 " transform="matrix(1, 0, 0, -1, 27.075, 18.075)"/>
<path fill-rule="nonzero" fill="rgb(100%, 100%, 100%)" fill-opacity="1" stroke-width="0.15" stroke-linecap="butt" stroke-linejoin="miter" stroke="rgb(0%, 0%, 0%)" stroke-opacity="1" stroke-miterlimit="10" d="M 2.401563 0.00078125 C 2.401563 3.2 -2.399219 3.2 -2.399219 0.00078125 C -2.399219 -3.198437 2.401563 -3.198437 2.401563 0.00078125 " transform="matrix(1, 0, 0, -1, 27.075, 90.075)"/>
<path fill-rule="nonzero" fill="rgb(100%, 100%, 100%)" fill-opacity="1" stroke-width="0.15" stroke-linecap="butt" stroke-linejoin="miter" stroke="rgb(0%, 0%, 0%)" stroke-opacity="1" stroke-miterlimit="10" d="M -2.399219 -2.401562 L 2.401563 -2.401562 L 2.401563 2.399219 L -2.399219 2.399219 Z M -2.399219 -2.401562 " transform="matrix(1, 0, 0, -1, 27.075, 18.075)"/>
<path fill-rule="nonzero" fill="rgb(100%, 100%, 100%)" fill-opacity="1" stroke-width="0.15" stroke-linecap="butt" stroke-linejoin="miter" stroke="rgb(0%, 0%, 0%)" stroke-opacity="1" stroke-miterlimit="10" d="M -2.399219 -2.401562 L 2.401563 -2.401562 L 2.401563 2.399219 L -2.399219 2.399219 Z M -2.399219 -2.401562 " transform="matrix(1, 0, 0, -1, 27.075, 90.075)"/>
<path fill="none" stroke-width="0.15" stroke-linecap="butt" stroke-linejoin="miter" stroke="rgb(0%, 0%, 0%)" stroke-opacity="1" stroke-miterlimit="10" d="M -2.399219 -2.401562 L 2.401563 -2.401562 L 2.401563 2.399219 L -2.399219 2.399219 Z M -2.399219 -2.401562 " transform="matrix(1, 0, 0, -1, 27.075, 18.075)"/>
<path fill="none" stroke-width="0.15" stroke-linecap="butt" stroke-linejoin="miter" stroke="rgb(0%, 0%, 0%)" stroke-opacity="1" stroke-miterlimit="10" d="M -2.399219 -2.401562 L 2.401563 -2.401562 L 2.401563 2.399219 L -2.399219 2.399219 Z M -2.399219 -2.401562 " transform="matrix(1, 0, 0, -1, 27.075, 90.075)"/>
<path fill="none" stroke-width="0.15" stroke-linecap="butt" stroke-linejoin="miter" stroke="rgb(0%, 0%, 0%)" stroke-opacity="1" stroke-miterlimit="10" d="M -2.399219 -2.401562 L 2.401563 -2.401562 L 2.401563 2.399219 L -2.399219 2.399219 Z M -2.399219 -2.401562 " transform="matrix(1, 0, 0, -1, 27.075, 18.075)"/>
<path fill-rule="nonzero" fill="rgb(97.6%, 80%, 2%)" fill-opacity="1" stroke-width="0.15" stroke-linecap="butt" stroke-linejoin="miter" stroke="rgb(0%, 0%, 0%)" stroke-opacity="1" stroke-miterlimit="10" d="M -2.399219 -2.401562 L 2.401563 -2.401562 L 2.401563 2.399219 L -2.399219 2.399219 Z M -2.399219 -2.401562 " transform="matrix(1, 0, 0, -1, 27.075, 90.075)"/>
<path fill-rule="nonzero" fill="rgb(100%, 100%, 100%)" fill-opacity="1" stroke-width="0.15" stroke-linecap="butt" stroke-linejoin="miter" stroke="rgb(0%, 0%, 0%)" stroke-opacity="1" stroke-miterlimit="10" d="M 2.401563 0.00078125 C 2.401563 3.2 -2.399219 3.2 -2.399219 0.00078125 C -2.399219 -3.198437 2.401563 -3.198437 2.401563 0.00078125 " transform="matrix(1, 0, 0, -1, 27.075, 18.075)"/>
<path fill-rule="nonzero" fill="rgb(5.9%, 34.9%, 63.1%)" fill-opacity="1" stroke-width="0.15" stroke-linecap="butt" stroke-linejoin="miter" stroke="rgb(0%, 0%, 0%)" stroke-opacity="1" stroke-miterlimit="10" d="M 2.401563 0.00078125 C 2.401563 3.2 -2.399219 3.2 -2.399219 0.00078125 C -2.399219 -3.198437 2.401563 -3.198437 2.401563 0.00078125 " transform="matrix(1, 0, 0, -1, 27.075, 90.075)"/>
<path fill-rule="nonzero" fill="rgb(100%, 100%, 100%)" fill-opacity="1" stroke-width="0.15" stroke-linecap="butt" stroke-linejoin="miter" stroke="rgb(0%, 0%, 0%)" stroke-opacity="1" stroke-miterlimit="10" d="M 1.714063 0.00078125 C 1.714063 2.285938 -1.715625 2.285938 -1.715625 0.00078125 C -1.715625 -2.284375 1.714063 -2.284375 1.714063 0.00078125 " transform="matrix(1, 0, 0, -1, 27.075, 18.075)"/>
<path fill-rule="nonzero" fill="rgb(100%, 100%, 100%)" fill-opacity="1" stroke-width="0.15" stroke-linecap="butt" stroke-linejoin="miter" stroke="rgb(0%, 0%, 0%)" stroke-opacity="1" stroke-miterlimit="10" d="M 1.714063 0.00078125 C 1.714063 2.285938 -1.715625 2.285938 -1.715625 0.00078125 C -1.715625 -2.284375 1.714063 -2.284375 1.714063 0.00078125 " transform="matrix(1, 0, 0, -1, 27.075, 90.075)"/>
<path fill-rule="nonzero" fill="rgb(100%, 100%, 100%)" fill-opacity="1" stroke-width="0.15" stroke-linecap="butt" stroke-linejoin="miter" stroke="rgb(0%, 0%, 0%)" stroke-opacity="1" stroke-miterlimit="10" d="M -1.141406 -1.14375 L 1.14375 -1.14375 L 1.14375 1.141406 L -1.141406 1.141406 Z M -1.141406 -1.14375 " transform="matrix(1, 0, 0, -1, 27.075, 54.075)"/>
<path fill-rule="nonzero" fill="rgb(100%, 100%, 100%)" fill-opacity="1" stroke-width="0.15" stroke-linecap="butt" stroke-linejoin="miter" stroke="rgb(0%, 0%, 0%)" stroke-opacity="1" stroke-miterlimit="10" d="M -1.844531 -11.087937 L 1.846875 -11.087937 L 1.846875 11.087844 L -1.844531 11.087844 Z M -1.844531 -11.087937 " transform="matrix(1, 0, 0, -1, 27.075, 39.123)"/>
<path fill-rule="nonzero" fill="rgb(100%, 100%, 100%)" fill-opacity="1" stroke-width="0.15" stroke-linecap="butt" stroke-linejoin="miter" stroke="rgb(0%, 0%, 0%)" stroke-opacity="1" stroke-miterlimit="10" d="M -1.844531 -11.086281 L 1.846875 -11.086281 L 1.846875 11.0895 L -1.844531 11.0895 Z M -1.844531 -11.086281 " transform="matrix(1, 0, 0, -1, 27.075, 69.027)"/>
<path fill-rule="nonzero" fill="rgb(100%, 100%, 100%)" fill-opacity="1" stroke-width="0.15" stroke-linecap="butt" stroke-linejoin="miter" stroke="rgb(0%, 0%, 0%)" stroke-opacity="1" stroke-miterlimit="10" d="M -1.141406 -1.141563 L 1.14375 -1.141563 L 1.14375 1.143594 L -1.141406 1.143594 Z M -1.141406 -1.141563 " transform="matrix(1, 0, 0, -1, 27.075, 23.835)"/>
<path fill-rule="nonzero" fill="rgb(100%, 100%, 100%)" fill-opacity="1" stroke-width="0.15" stroke-linecap="butt" stroke-linejoin="miter" stroke="rgb(0%, 0%, 0%)" stroke-opacity="1" stroke-miterlimit="10" d="M -1.141406 -1.142031 L 1.14375 -1.142031 L 1.14375 1.143125 L -1.141406 1.143125 Z M -1.141406 -1.142031 " transform="matrix(1, 0, 0, -1, 27.075, 84.315)"/>
<path fill-rule="nonzero" fill="rgb(100%, 100%, 100%)" fill-opacity="1" stroke-width="0.15" stroke-linecap="butt" stroke-linejoin="miter" stroke="rgb(0%, 0%, 0%)" stroke-opacity="1" stroke-miterlimit="10" d="M 1.921094 0.00078125 C 1.921094 2.559375 -1.91875 2.559375 -1.91875 0.00078125 C -1.91875 -2.561719 1.921094 -2.561719 1.921094 0.00078125 " transform="matrix(1, 0, 0, -1, 27.075, 18.075)"/>
<path fill-rule="nonzero" fill="rgb(3.5%, 26.7%, 49.4%)" fill-opacity="1" stroke-width="0.15" stroke-linecap="butt" stroke-linejoin="miter" stroke="rgb(0%, 0%, 0%)" stroke-opacity="1" stroke-miterlimit="10" d="M 1.921094 0.00078125 C 1.921094 2.559375 -1.91875 2.559375 -1.91875 0.00078125 C -1.91875 -2.561719 1.921094 -2.561719 1.921094 0.00078125 " transform="matrix(1, 0, 0, -1, 27.075, 90.075)"/>
<path fill-rule="nonzero" fill="rgb(100%, 100%, 100%)" fill-opacity="1" stroke-width="0.15" stroke-linecap="butt" stroke-linejoin="miter" stroke="rgb(0%, 0%, 0%)" stroke-opacity="1" stroke-miterlimit="10" d="M -1.844531 -11.087937 L 1.846875 -11.087937 L 1.846875 11.087844 L -1.844531 11.087844 Z M -1.844531 -11.087937 " transform="matrix(1, 0, 0, -1, 27.075, 39.123)"/>
<path fill-rule="nonzero" fill="rgb(100%, 100%, 100%)" fill-opacity="1" stroke-width="0.15" stroke-linecap="butt" stroke-linejoin="miter" stroke="rgb(0%, 0%, 0%)" stroke-opacity="1" stroke-miterlimit="10" d="M -1.844531 -11.086281 L 1.846875 -11.086281 L 1.846875 11.0895 L -1.844531 11.0895 Z M -1.844531 -11.086281 " transform="matrix(1, 0, 0, -1, 27.075, 69.027)"/>
<path fill-rule="nonzero" fill="rgb(100%, 100%, 100%)" fill-opacity="1" stroke-width="0.15" stroke-linecap="butt" stroke-linejoin="miter" stroke="rgb(0%, 0%, 0%)" stroke-opacity="1" stroke-miterlimit="10" d="M -1.485156 -1.4875 L 1.4875 -1.4875 L 1.4875 1.485156 L -1.485156 1.485156 Z M -1.485156 -1.4875 " transform="matrix(1, 0, 0, -1, 27.075, 18.075)"/>
<path fill-rule="nonzero" fill="rgb(5.9%, 34.9%, 63.1%)" fill-opacity="1" stroke-width="0.15" stroke-linecap="butt" stroke-linejoin="miter" stroke="rgb(0%, 0%, 0%)" stroke-opacity="1" stroke-miterlimit="10" d="M -1.485156 -1.4875 L 1.4875 -1.4875 L 1.4875 1.485156 L -1.485156 1.485156 Z M -1.485156 -1.4875 " transform="matrix(1, 0, 0, -1, 27.075, 90.075)"/>
<path fill-rule="nonzero" fill="rgb(100%, 100%, 100%)" fill-opacity="1" stroke-width="0.15" stroke-linecap="butt" stroke-linejoin="miter" stroke="rgb(0%, 0%, 0%)" stroke-opacity="1" stroke-miterlimit="10" d="M -1.485156 -1.4875 L 1.4875 -1.4875 L 1.4875 1.485156 L -1.485156 1.485156 Z M -1.485156 -1.4875 " transform="matrix(1, 0, 0, -1, 27.075, 54.075)"/>
<path fill-rule="nonzero" fill="rgb(100%, 100%, 100%)" fill-opacity="1" stroke-width="0.15" stroke-linecap="butt" stroke-linejoin="miter" stroke="rgb(0%, 0%, 0%)" stroke-opacity="1" stroke-miterlimit="10" d="M -1.485156 -1.485313 L 1.4875 -1.485313 L 1.4875 1.487344 L -1.485156 1.487344 Z M -1.485156 -1.485313 " transform="matrix(1, 0, 0, -1, 27.075, 23.835)"/>
<path fill-rule="nonzero" fill="rgb(5.9%, 34.9%, 63.1%)" fill-opacity="1" stroke-width="0.15" stroke-linecap="butt" stroke-linejoin="miter" stroke="rgb(0%, 0%, 0%)" stroke-opacity="1" stroke-miterlimit="10" d="M -1.485156 -1.485781 L 1.4875 -1.485781 L 1.4875 1.486875 L -1.485156 1.486875 Z M -1.485156 -1.485781 " transform="matrix(1, 0, 0, -1, 27.075, 84.315)"/>
<path fill-rule="nonzero" fill="rgb(100%, 100%, 100%)" fill-opacity="1" stroke-width="0.15" stroke-linecap="butt" stroke-linejoin="miter" stroke="rgb(0%, 0%, 0%)" stroke-opacity="1" stroke-miterlimit="10" d="M -1.141406 -1.14375 L 1.14375 -1.14375 L 1.14375 1.141406 L -1.141406 1.141406 Z M -1.141406 -1.14375 " transform="matrix(1, 0, 0, -1, 27.075, 18.075)"/>
<path fill-rule="nonzero" fill="rgb(100%, 100%, 100%)" fill-opacity="1" stroke-width="0.15" stroke-linecap="butt" stroke-linejoin="miter" stroke="rgb(0%, 0%, 0%)" stroke-opacity="1" stroke-miterlimit="10" d="M -1.141406 -1.14375 L 1.14375 -1.14375 L 1.14375 1.141406 L -1.141406 1.141406 Z M -1.141406 -1.14375 " transform="matrix(1, 0, 0, -1, 27.075, 90.075)"/>
<path fill-rule="nonzero" fill="rgb(100%, 100%, 100%)" fill-opacity="1" stroke-width="0.15" stroke-linecap="butt" stroke-linejoin="miter" stroke="rgb(0%, 0%, 0%)" stroke-opacity="1" stroke-miterlimit="10" d="M -1.141406 -1.141563 L 1.14375 -1.141563 L 1.14375 1.143594 L -1.141406 1.143594 Z M -1.141406 -1.141563 " transform="matrix(1, 0, 0, -1, 27.075, 23.835)"/>
<path fill-rule="nonzero" fill="rgb(100%, 100%, 100%)" fill-opacity="1" stroke-width="0.15" stroke-linecap="butt" stroke-linejoin="miter" stroke="rgb(0%, 0%, 0%)" stroke-opacity="1" stroke-miterlimit="10" d="M -1.141406 -1.142031 L 1.14375 -1.142031 L 1.14375 1.143125 L -1.141406 1.143125 Z M -1.141406 -1.142031 " transform="matrix(1, 0, 0, -1, 27.075, 84.315)"/>
<path fill="none" stroke-width="0.15" stroke-linecap="butt" stroke-linejoin="miter" stroke="rgb(0%, 0%, 0%)" stroke-opacity="1" stroke-miterlimit="10" d="M -1.141406 -1.14375 L 1.14375 -1.14375 L 1.14375 1.141406 L -1.141406 1.141406 Z M -1.141406 -1.14375 " transform="matrix(1, 0, 0, -1, 27.075, 18.075)"/>
<path fill="none" stroke-width="0.15" stroke-linecap="butt" stroke-linejoin="miter" stroke="rgb(0%, 0%, 0%)" stroke-opacity="1" stroke-miterlimit="10" d="M -1.141406 -1.14375 L 1.14375 -1.14375 L 1.14375 1.141406 L -1.141406 1.141406 Z M -1.141406 -1.14375 " transform="matrix(1, 0, 0, -1, 27.075, 90.075)"/>
<path fill-rule="nonzero" fill="rgb(100%, 100%, 100%)" fill-opacity="1" stroke-width="0.15" stroke-linecap="butt" stroke-linejoin="miter" stroke="rgb(0%, 0%, 0%)" stroke-opacity="1" stroke-miterlimit="10" d="M -1.141406 -1.14375 L 1.14375 -1.14375 L 1.14375 1.141406 L -1.141406 1.141406 Z M -1.141406 -1.14375 " transform="matrix(1, 0, 0, -1, 27.075, 54.075)"/>
<path fill="none" stroke-width="0.15" stroke-linecap="butt" stroke-linejoin="miter" stroke="rgb(0%, 0%, 0%)" stroke-opacity="1" stroke-miterlimit="10" d="M -1.141406 -1.141563 L 1.14375 -1.141563 L 1.14375 1.143594 L -1.141406 1.143594 Z M -1.141406 -1.141563 " transform="matrix(1, 0, 0, -1, 27.075, 23.835)"/>
<path fill="none" stroke-width="0.15" stroke-linecap="butt" stroke-linejoin="miter" stroke="rgb(0%, 0%, 0%)" stroke-opacity="1" stroke-miterlimit="10" d="M -1.141406 -1.142031 L 1.14375 -1.142031 L 1.14375 1.143125 L -1.141406 1.143125 Z M -1.141406 -1.142031 " transform="matrix(1, 0, 0, -1, 27.075, 84.315)"/>
<path fill="none" stroke-width="0.15" stroke-linecap="butt" stroke-linejoin="miter" stroke="rgb(0%, 0%, 0%)" stroke-opacity="1" stroke-miterlimit="10" d="M -1.141406 -1.14375 L 1.14375 -1.14375 L 1.14375 1.141406 L -1.141406 1.141406 Z M -1.141406 -1.14375 " transform="matrix(1, 0, 0, -1, 27.075, 18.075)"/>
<path fill="none" stroke-width="0.15" stroke-linecap="butt" stroke-linejoin="miter" stroke="rgb(0%, 0%, 0%)" stroke-opacity="1" stroke-miterlimit="10" d="M -1.141406 -1.14375 L 1.14375 -1.14375 L 1.14375 1.141406 L -1.141406 1.141406 Z M -1.141406 -1.14375 " transform="matrix(1, 0, 0, -1, 27.075, 90.075)"/>
<path fill="none" stroke-width="0.15" stroke-linecap="butt" stroke-linejoin="miter" stroke="rgb(0%, 0%, 0%)" stroke-opacity="1" stroke-miterlimit="10" d="M -1.141406 -1.141563 L 1.14375 -1.141563 L 1.14375 1.143594 L -1.141406 1.143594 Z M -1.141406 -1.141563 " transform="matrix(1, 0, 0, -1, 27.075, 23.835)"/>
<path fill-rule="nonzero" fill="rgb(75.7%, 62%, 0%)" fill-opacity="1" stroke-width="0.15" stroke-linecap="butt" stroke-linejoin="miter" stroke="rgb(0%, 0%, 0%)" stroke-opacity="1" stroke-miterlimit="10" d="M -1.141406 -1.142031 L 1.14375 -1.142031 L 1.14375 1.143125 L -1.141406 1.143125 Z M -1.141406 -1.142031 " transform="matrix(1, 0, 0, -1, 27.075, 84.315)"/>
<path fill="none" stroke-width="0.15" stroke-linecap="butt" stroke-linejoin="miter" stroke="rgb(0%, 0%, 0%)" stroke-opacity="1" stroke-miterlimit="10" d="M -1.141406 -1.14375 L 1.14375 -1.14375 L 1.14375 1.141406 L -1.141406 1.141406 Z M -1.141406 -1.14375 " transform="matrix(1, 0, 0, -1, 27.075, 54.075)"/>
<path fill="none" stroke-width="0.15" stroke-linecap="butt" stroke-linejoin="miter" stroke="rgb(0%, 0%, 0%)" stroke-opacity="1" stroke-miterlimit="10" d="M -1.141406 -1.14375 L 1.14375 -1.14375 L 1.14375 1.141406 L -1.141406 1.141406 Z M -1.141406 -1.14375 " transform="matrix(1, 0, 0, -1, 27.075, 18.075)"/>
<path fill-rule="nonzero" fill="rgb(97.6%, 80%, 2%)" fill-opacity="1" stroke-width="0.15" stroke-linecap="butt" stroke-linejoin="miter" stroke="rgb(0%, 0%, 0%)" stroke-opacity="1" stroke-miterlimit="10" d="M -1.141406 -1.14375 L 1.14375 -1.14375 L 1.14375 1.141406 L -1.141406 1.141406 Z M -1.141406 -1.14375 " transform="matrix(1, 0, 0, -1, 27.075, 90.075)"/>
<path fill="none" stroke-width="0.15" stroke-linecap="butt" stroke-linejoin="miter" stroke="rgb(0%, 0%, 0%)" stroke-opacity="1" stroke-miterlimit="10" d="M -1.141406 -1.14375 L 1.14375 -1.14375 L 1.14375 1.141406 L -1.141406 1.141406 Z M -1.141406 -1.14375 " transform="matrix(1, 0, 0, -1, 27.075, 54.075)"/>
<path fill="none" stroke-width="0.15" stroke-linecap="butt" stroke-linejoin="miter" stroke="rgb(0%, 0%, 0%)" stroke-opacity="1" stroke-miterlimit="10" d="M -1.141406 -1.141563 L 1.14375 -1.141563 L 1.14375 1.143594 L -1.141406 1.143594 Z M -1.141406 -1.141563 " transform="matrix(1, 0, 0, -1, 27.075, 23.835)"/>
<path fill="none" stroke-width="0.15" stroke-linecap="butt" stroke-linejoin="miter" stroke="rgb(0%, 0%, 0%)" stroke-opacity="1" stroke-miterlimit="10" d="M -1.141406 -1.142031 L 1.14375 -1.142031 L 1.14375 1.143125 L -1.141406 1.143125 Z M -1.141406 -1.142031 " transform="matrix(1, 0, 0, -1, 27.075, 84.315)"/>
<path fill-rule="nonzero" fill="rgb(100%, 100%, 100%)" fill-opacity="1" stroke-width="0.15" stroke-linecap="butt" stroke-linejoin="miter" stroke="rgb(0%, 0%, 0%)" stroke-opacity="1" stroke-miterlimit="10" d="M -0.00078125 -1.14375 L 1.14375 1.141406 L -1.141406 1.141406 Z M -0.00078125 -1.14375 " transform="matrix(1, 0, 0, -1, 27.075, 18.075)"/>
<path fill-rule="nonzero" fill="rgb(100%, 100%, 100%)" fill-opacity="1" stroke-width="0.15" stroke-linecap="butt" stroke-linejoin="miter" stroke="rgb(0%, 0%, 0%)" stroke-opacity="1" stroke-miterlimit="10" d="M 0.00078125 -1.141406 L 1.145312 1.14375 L -1.139844 1.14375 Z M 0.00078125 -1.141406 " transform="matrix(-1, -0.000000000000000122, -0.000000000000000122, 1, 27.075, 90.075)"/>
<path fill-rule="nonzero" fill="rgb(100%, 100%, 100%)" fill-opacity="1" stroke-width="0.15" stroke-linecap="butt" stroke-linejoin="miter" stroke="rgb(0%, 0%, 0%)" stroke-opacity="1" stroke-miterlimit="10" d="M -0.00078125 -1.141563 L 1.14375 1.143594 L -1.141406 1.143594 Z M -0.00078125 -1.141563 " transform="matrix(1, 0, 0, -1, 27.075, 23.835)"/>
<path fill-rule="nonzero" fill="rgb(100%, 100%, 100%)" fill-opacity="1" stroke-width="0.15" stroke-linecap="butt" stroke-linejoin="miter" stroke="rgb(0%, 0%, 0%)" stroke-opacity="1" stroke-miterlimit="10" d="M -0.00078125 -1.142031 L 1.14375 1.143125 L -1.141406 1.143125 Z M -0.00078125 -1.142031 " transform="matrix(1, 0, 0, -1, 27.075, 84.315)"/>
<path fill="none" stroke-width="0.15" stroke-linecap="butt" stroke-linejoin="miter" stroke="rgb(0%, 0%, 0%)" stroke-opacity="1" stroke-miterlimit="10" d="M -0.00078125 -1.14375 L 1.14375 1.141406 L -1.141406 1.141406 Z M -0.00078125 -1.14375 " transform="matrix(1, 0, 0, -1, 27.075, 18.075)"/>
<path fill="none" stroke-width="0.15" stroke-linecap="butt" stroke-linejoin="miter" stroke="rgb(0%, 0%, 0%)" stroke-opacity="1" stroke-miterlimit="10" d="M 0.00078125 -1.141406 L 1.145312 1.14375 L -1.139844 1.14375 Z M 0.00078125 -1.141406 " transform="matrix(-1, -0.000000000000000122, -0.000000000000000122, 1, 27.075, 90.075)"/>
<path fill="none" stroke-width="0.15" stroke-linecap="butt" stroke-linejoin="miter" stroke="rgb(0%, 0%, 0%)" stroke-opacity="1" stroke-miterlimit="10" d="M -0.00078125 -1.141563 L 1.14375 1.143594 L -1.141406 1.143594 Z M -0.00078125 -1.141563 " transform="matrix(1, 0, 0, -1, 27.075, 23.835)"/>
<path fill="none" stroke-width="0.15" stroke-linecap="butt" stroke-linejoin="miter" stroke="rgb(0%, 0%, 0%)" stroke-opacity="1" stroke-miterlimit="10" d="M -0.00078125 -1.142031 L 1.14375 1.143125 L -1.141406 1.143125 Z M -0.00078125 -1.142031 " transform="matrix(1, 0, 0, -1, 27.075, 84.315)"/>
</g>
</defs>
<use xlink:href="#source-149" transform="matrix(9.98613, 0, 0, 9.98613, 269.62552, 0)"/>
</svg>
